(module Keystone_3009 (layer F.Cu) (tedit 5CDADDD4)
  (descr https://datasheet.lcsc.com/szlcsc/1811281130_Keystone-3009_C238101.pdf)
  (fp_text reference REF** (at 0 -11) (layer F.SilkS)
    (effects (font (size 1 1) (thickness 0.15)))
  )
  (fp_text value "Keystone 3009" (at 0 10) (layer F.Fab)
    (effects (font (size 1 1) (thickness 0.15)))
  )
  (fp_line (start -3.785 12.83) (end 3.785 12.83) (layer Dwgs.User) (width 0.15))
  (fp_line (start -12.7 -6.35) (end -12.7 6.35) (layer Dwgs.User) (width 0.15))
  (fp_line (start 12.7 -6.35) (end 12.7 6.35) (layer Dwgs.User) (width 0.15))
  (fp_line (start -12.7 6.35) (end -3.785 12.83) (layer Dwgs.User) (width 0.15))
  (fp_line (start 3.785 12.83) (end 12.7 6.35) (layer Dwgs.User) (width 0.15))
  (fp_line (start 12.85 6.35) (end 12.85 1.75) (layer F.SilkS) (width 0.15))
  (fp_line (start 12.85 -1.75) (end 12.85 -6.35) (layer F.SilkS) (width 0.15))
  (fp_line (start -12.85 -1.75) (end -12.85 -6.35) (layer F.SilkS) (width 0.15))
  (fp_line (start -12.85 6.35) (end -12.85 1.75) (layer F.SilkS) (width 0.15))
  (fp_line (start -9.27 -9.78) (end 9.27 -9.78) (layer Dwgs.User) (width 0.15))
  (fp_line (start -12.7 -6.35) (end -9.27 -9.78) (layer Dwgs.User) (width 0.15))
  (fp_line (start 12.7 -6.35) (end 9.27 -9.78) (layer Dwgs.User) (width 0.15))
  (fp_line (start -3.75 12.95) (end 3.75 12.95) (layer F.SilkS) (width 0.15))
  (fp_line (start -15 -5) (end -15 5.5) (layer F.CrtYd) (width 0.05))
  (fp_line (start -4 13.5) (end 4 13.5) (layer F.CrtYd) (width 0.05))
  (fp_line (start 15 5.5) (end 15 -5) (layer F.CrtYd) (width 0.05))
  (fp_line (start 7 -13) (end -7 -13) (layer F.CrtYd) (width 0.05))
  (fp_line (start 4 13.5) (end 15 5.5) (layer F.CrtYd) (width 0.05))
  (fp_line (start -4 13.5) (end -15 5.5) (layer F.CrtYd) (width 0.05))
  (fp_line (start 7 -13) (end 15 -5) (layer F.CrtYd) (width 0.05))
  (fp_line (start -7 -13) (end -15 -5) (layer F.CrtYd) (width 0.05))
  (fp_circle (center 0 0) (end 12.7 0) (layer F.Fab) (width 0.15))
  (pad 1 thru_hole circle (at -12.7 0) (size 3 3) (drill 1.85) (layers *.Cu *.Mask))
  (pad 1 thru_hole circle (at 12.7 0) (size 3 3) (drill 1.85) (layers *.Cu *.Mask))
  (pad 2 smd circle (at 0 0) (size 16 16) (layers F.Cu F.Mask))
)
